[gd_scene load_steps=2 format=3 uid="uid://be4ypojex0kht"]

[sub_resource type="LabelSettings" id="LabelSettings_l6l05"]
font_color = Color(0, 0, 0, 1)

[node name="ListItem" type="HBoxContainer"]

[node name="Label" type="Label" parent="."]
layout_mode = 2
text = "ItemName"
label_settings = SubResource("LabelSettings_l6l05")

[node name="CheckBox" type="CheckBox" parent="."]
layout_mode = 2
size_flags_horizontal = 10
disabled = true
