,en,de
YOU_WON,You won!,Du hast gewonnen!
YOU_LOST,You lost. Oof.,Du hast verloren. Oof.
WIN_CONTENT,You successfully brought all the ,"OMG, du hast gewonnen, du krasses Bürschchen du!"
STORY,Story,Geschichte
STORY_CONTENT,"You are a cool gangster who is stealing from a shop which recently got shut down for somoe reason. The shop still has some goods in it for some reason, and no one seems to care about you going inside, so you just do it. You sneak inside and get the stuff from your shopping list.","Du bist ein ziemlich cooler Gangster und beklaust gerade einen Laden. Der Laden wurde letztens geschlossen aber ein Grund dafür wurde nicht gegeben. Es sind noch einige Waren drin, also guckst du einfach mal nach."
LOSE_CONTENT,You found out why the market got abandoned,"Du fandest heraus, weshalb der Laden verlassen wurde"
CLOSE_MENU,Close,Schließen
PAUSE_MENU_TITLE,Paused,Pausiert
RETURN_TO_HOME_SCREEN,Return to start screen,Auf den Startbildschirm
RESUME_GAME,Continue,Weiter spielen
CHASE_TITLE,Did you hear that?,"Hast du das gehört? Als du deine letzte Sache eingepackst, hörst du das Monster schreien und es scheint schneller zu sein, als zuvor. Auf zum Notausgang!"
CHASE_CONTENT,"After you collected all the items you wanted, the -thing- screamed and seems faster then before! You must run to the exit!","Du hast nun alles was du wolltest, aber die Kreatur ist hinter dir her! Schnell raus hier, auf zum Notausgang!"
YOU_LOST_CONTENT,"You were cought by the creature and it noticed, that you stole a multitude of items from the store! You will regret this.","Als die Kreatur dich fing, wurdest du gebeten das Geschäft zu verlassen. Du hast hier nichts zu suchen."
ENDING_GOOD,Maybe it was not right to steal all along. You think about what you did today. Stealing cheap items off of an abandoned store? What were you thinking? You decide that you won’t steal from stores anymore.,"Vieleicht war es doch nicht okay, aus einem verlassenen Geschäft zu stehlen. War auch eine dumme Idee. Du entscheidest dich dazu, nichts mehr zu stehlen."
RETRY,Try again,Nochmal
ENDING_SUCCESS_CONTENT,"You escaped with all your goods packed away. Great job, you saved – like – 20 € or something…","Du bist dem Geschäft entkommen mit all deinen geklauten Sachen. Toll gemacht, du hast so – ungefähr – 20 € gespart."
ENDING_SUCCESS,You escaped successfully!,Du bist entkommen!
START_GAME,Start game,Spiel starten
SETTINGS,Settings,Einstellungen
CREDITS,Credits,Dankesagungen
EXIT_GAME,Exit game and get a life,Spiel schlisßen und was anderes machen
SAVE_AND_CLOSE,Save and close,Speichern und schließen
MOUSE_SENSETIVITY,Mouse sensetivity,Maus-Empfindlichkeit
DELETE_SAVE_DATA,Delete ALL save data,Lösche alle Speicherdaten
DELETE_SAVE_DATA_EXPLANATION,Delete all your progress,Löscht alles!
ENDINGS,Endings,Endergebnisse
HARD_VERSION,Play the game BUT HARDER!,Spiele das Spiel ABER SCHWERER!
DELETE_ALL_QUESTION,Are you sure that you want to delete ALL save data? All your progress will disappear.,"Bist du sicher, dass du all deine Spieldaten löschen willst? Dein kompletter Fortschritt geht dadurch verloren."
YES,Yes,Ja
NO,No,Nein
YES_DELETE,"Yes, delete!","Ja, löschen!"
LIST,LIST,LISTE
INTERACT,INTERACT,INTERAGIEREN
ENDING_HARD,You made it. The HHARD WAY!,Du hast es geschafft! Auf die HARTE TOUR!
ENDING_HARD_CONTENT,You are a truely crazy person for making it through the,"Du bist eine verrückte Person dafür, dass du das Spiel auf die harte Tour durchgespielt hast."
CONGRATULATIONS,Congratulations!,Herzlichen Glückwunsch!
CONGRATULATIONS_CONTENT,"You did it, you are incredible! You completed ALL the endings.",You hast es geschafft. Du bist unglaublich! You hast ALLE Endergebnisse freigeschaltet.
GOOD_ENDING,The good ending,Das gute Ende
GOOD_ENDING_CONTENT,"You decided that stealing wasn’t good all along. You went up to the thing, looked it straigth in the face, and said „I AM DONE!“. The thing told you to go outside. You feel like you learned something today.","Du entscheidest dich dafür , dass stehlen keine gute Idee ist. Du gehst zu der Kreatur und entschuldigst dich für den Gedanken hier etwas zu klauen und verlässt das Geschäft unbeschädigt. Du hast das Gefühl, dass du heute etwas gelernt hast."
LIST_INFO,Press TAB to open your „shopping list“,Drücke die Tabulatortaste um deine „Einkaufsliste“ anzusehen.
FLASH_INFO,"Press F to turn on the candle. Be aware though, the thing can see you while you have it on.",Drücke F um deine Kerze anzuschalten. Aber pass auf! Die Kreatur kann deine leuchtende Kerze sehen.
CREDITS_POLYHEAVEN,Credits for the following assets goes to Polyheaven.com:,Ein großes Dankeschön an die Leute von Polyheaven.com für folgende Assets:
CREDITS_MUSIC,Also thanks to the amazing Kenney for the song „Italian Mom“ which can be heard in the restuarant area. What a banger!,"Ein weiteres Dankeschön an Kenney für den Song „Italian Mom“, welchen man im Restaurantabteil hören kann."
CREDITS_ASSETS,"Wooden table, white plastic chair, candle in the box, floor textures, wallpaper textures","Hölzerner Tisch, weißer Kunststoff Stuhl, Kerze in der Holzbox, Boden-Texturen, Tapeten-Texturen"
CREDITS_REST,Everything else you see and hear in the game was done by me.,Alles andere was Sie im Spiel hören und sehen kommt von mir.
TP_START_GAME,"Let’s start the game, shall we?",Lasset uns das Spiel starten!
TP_SETTINGS,There is only one setting in here. It’s just the mouse sensetivity for the camera.,Es gibt nur eine einzige Einstellung: Maus Empfindlichkeit für die Kamera
TP_HARD_MODE,"Play the game, but with a longer list and without a candle",Spiele das Spiel mit einer längeren Liste und ohne Kerze
TP_CREDITS,"Look at where the models, textures and music comes from","Schau nach wer die Modelle, Texturen und Musik im Siel gemacht hat"
TP_DANGER,You got cought while stealing from the empty store. Quite the scary experience.,Du wurdest beim klauen von irgendetwas erwischt. Die Musik währenddessen war hektisch.
TP_ESCAPE,You made it out alive and you even got all the things from your stealing list!,"Du hast es lebendig raus geschaft, und sogar alles von deiner Klau-Liste dabei!"
TP_GOOD,"You walked right up to that weird thing and told it your deal. It understood and was not angry, since you didn’t steal anything. You felt good that day.","Du erklärtest diesem komischen Ding was du hier vorhattest. Es verstand dich und war nicht böse, da du ehrlich warst. Der restliche Tag  verging ruhig und gelassen."
TP_HARD,"You did the impossible and beat the game WITHOUT a candle AND with way more to collect. That thing was also way quicker then usual, which made it even harder","Du tatest das unglaubliche und gewannst auf der schwierigsten Stufe! Das Ding war viel schneller, du hattest keine Kerze und du musstest viel mehr Sachen sammeln"
TP_MOUSE_SENSETIVITY,"Set the sensetivity of your mouse for the camera movement. The higher this value, the faster you will look around in the game","Maus Empfindlichkeit für die Kamera-Bewegung. Je höher dieser Wer, desto schneller siehst du dich im Spiel um"
TP_DELETE_SAVE_DATA,"Be aware, this deletes everything! All progress – poof! Gone!",Vorsichtig! Das hier entfernt alles! All dein Fortschritt: poof! Weg ist er!
TP_DELETE_YES,Irreversibly delete all your game progress,Löscht unwiderruflich all deine Speicherdaten
TP_DELETE_NO,Keep your save data saved,Behalte deine Speicherdaten
TO_GET,Get this:,Hol das:
